<?xml version="1.0" encoding="UTF-8" standalone="no"?>
<!-- Created with Inkscape (http://www.inkscape.org/) -->

<svg
   width="800"
   height="800"
   viewBox="0 0 211.66667 211.66667"
   version="1.1"
   id="svg709"
   inkscape:version="1.1.2 (0a00cf5339, 2022-02-04)"
   sodipodi:docname="pin-no-lock.svg"
   xmlns:inkscape="http://www.inkscape.org/namespaces/inkscape"
   xmlns:sodipodi="http://sodipodi.sourceforge.net/DTD/sodipodi-0.dtd"
   xmlns="http://www.w3.org/2000/svg"
   xmlns:svg="http://www.w3.org/2000/svg">
  <sodipodi:namedview
     id="namedview711"
     pagecolor="#ffffff"
     bordercolor="#666666"
     borderopacity="1.0"
     inkscape:pageshadow="2"
     inkscape:pageopacity="0.0"
     inkscape:pagecheckerboard="0"
     inkscape:document-units="mm"
     showgrid="false"
     units="px"
     inkscape:zoom="0.69664703"
     inkscape:cx="307.90342"
     inkscape:cy="546.18765"
     inkscape:window-width="1850"
     inkscape:window-height="1016"
     inkscape:window-x="0"
     inkscape:window-y="0"
     inkscape:window-maximized="1"
     inkscape:current-layer="layer1" />
  <defs
     id="defs706" />
  <g
     inkscape:label="Layer 1"
     inkscape:groupmode="layer"
     id="layer1">
    <path
       d="M 167.44669,123.38371 H 43.974734 c -24.353242,0 -44.09735997,19.74412 -44.09735997,44.09695 0,24.35283 19.74411797,44.09736 44.09735997,44.09736 H 167.4471 c 24.35283,0 44.09695,-19.74412 44.09695,-44.09736 0,-24.35324 -19.74412,-44.09695 -44.09736,-44.09695 z m 0,70.55528 H 43.974734 c -14.611201,0 -26.458333,-11.84713 -26.458333,-26.45833 0,-14.6112 11.847132,-26.45833 26.458333,-26.45833 H 167.4471 c 14.6112,0 26.45833,11.84713 26.45833,26.45833 0,14.6112 -11.84713,26.45833 -26.45874,26.45833 z"
       id="path191"
       style="stroke-width:0.413411" />
    <path
       d="m 52.794041,149.84205 c -4.870814,0 -8.819307,3.94849 -8.819307,8.8193 v 17.63903 c 0,4.87081 3.948493,8.81931 8.819307,8.81931 4.870814,0 8.819307,-3.9485 8.819307,-8.81931 v -17.63903 c 0,-4.87081 -3.948493,-8.8193 -8.819307,-8.8193 z"
       id="path195"
       style="stroke-width:0.413411" />
    <path
       d="m 88.071681,149.84205 c -4.870814,0 -8.819307,3.94849 -8.819307,8.8193 v 17.63903 c 0,4.87081 3.948493,8.81931 8.819307,8.81931 4.870814,0 8.819307,-3.9485 8.819307,-8.81931 v -17.63903 c 4.13e-4,-4.87081 -3.948493,-8.8193 -8.819307,-8.8193 z"
       id="path197"
       style="stroke-width:0.413411" />
    <path
       d="m 123.34974,149.84205 c -4.87082,0 -8.81931,3.94849 -8.81931,8.8193 v 17.63903 c 0,4.87081 3.94849,8.81931 8.81931,8.81931 4.87081,0 8.8193,-3.9485 8.8193,-8.81931 v -17.63903 c 0,-4.87081 -3.94849,-8.8193 -8.8193,-8.8193 z"
       id="path199"
       style="stroke-width:0.413411" />
    <path
       d="m 167.44669,167.48066 h -17.63903 c -4.87082,0 -8.81931,3.94849 -8.81931,8.81931 0,4.87081 3.9489,8.81972 8.81972,8.81972 h 17.63903 c 4.87081,0 8.81931,-3.9485 8.81931,-8.81931 0,-4.87081 -3.94891,-8.81972 -8.81972,-8.81972 z"
       id="path201"
       style="stroke-width:0.413411" />
  </g>
</svg>
